┌─────────┬─────────────────────┬─────────────────────┬──────────────┬──────────────┬──────────────┬──────────────┐
│  type   │   pickup_datetime   │  dropOff_datetime   │ duration_min │ duration_sec │ PUlocationID │ DOlocationID │
│ varchar │      timestamp      │      timestamp      │    int64     │    int64     │    double    │    double    │
├─────────┼─────────────────────┼─────────────────────┼──────────────┼──────────────┼──────────────┼──────────────┤
│ fhv     │ 2020-03-01 08:46:52 │ 2020-03-01 09:00:25 │           14 │          813 │              │        241.0 │
│ fhv     │ 2020-03-01 08:45:08 │ 2020-03-01 08:51:24 │            6 │          376 │              │        254.0 │
│ fhv     │ 2020-03-01 08:12:48 │ 2020-03-01 08:17:02 │            5 │          254 │              │         81.0 │
│ fhv     │ 2020-03-01 08:09:07 │ 2020-03-01 08:15:02 │            6 │          355 │              │        254.0 │
│ fhv     │ 2020-03-01 08:37:14 │ 2020-03-01 08:47:33 │           10 │          619 │              │        259.0 │
│ fhv     │ 2020-03-01 08:33:01 │ 2020-03-01 08:42:47 │            9 │          586 │              │        265.0 │
│ fhv     │ 2020-03-01 08:40:55 │ 2020-03-01 08:50:42 │           10 │          587 │              │        265.0 │
│ fhv     │ 2020-03-01 08:20:13 │ 2020-03-01 08:28:53 │            8 │          520 │              │         32.0 │
│ fhv     │ 2020-03-01 08:42:07 │ 2020-03-01 08:52:13 │           10 │          606 │              │         51.0 │
│ fhv     │ 2020-03-01 08:45:55 │ 2020-03-01 08:53:14 │            8 │          439 │              │        254.0 │
│ fhv     │ 2020-03-01 08:12:47 │ 2020-03-01 08:26:48 │           14 │          841 │              │         47.0 │
│ fhv     │ 2020-03-01 08:49:29 │ 2020-03-01 09:09:00 │           20 │         1171 │              │        241.0 │
│ fhv     │ 2020-03-01 08:19:47 │ 2020-03-01 08:29:22 │           10 │          575 │              │        254.0 │
│ fhv     │ 2020-03-01 08:39:21 │ 2020-03-01 08:59:40 │           20 │         1219 │              │         74.0 │
│ fhv     │ 2020-03-01 08:06:47 │ 2020-03-01 08:13:30 │            7 │          403 │              │        254.0 │
│ fhv     │ 2020-03-01 08:36:57 │ 2020-03-01 08:51:57 │           15 │          900 │              │        126.0 │
│ fhv     │ 2020-03-01 08:04:38 │ 2020-03-01 08:16:06 │           12 │          688 │              │         81.0 │
│ fhv     │ 2020-03-01 08:33:16 │ 2020-03-01 08:38:58 │            5 │          342 │              │         51.0 │
│ fhv     │ 2020-03-01 08:51:17 │ 2020-03-01 09:00:34 │            9 │          557 │              │        265.0 │
│ fhv     │ 2020-03-01 08:28:57 │ 2020-03-01 08:41:37 │           13 │          760 │              │        185.0 │
│  ·      │          ·          │          ·          │            · │           ·  │      ·       │           ·  │
│  ·      │          ·          │          ·          │            · │           ·  │      ·       │           ·  │
│  ·      │          ·          │          ·          │            · │           ·  │      ·       │           ·  │
│ fhv     │ 2021-10-30 22:18:00 │ 2021-10-30 22:23:03 │            5 │          303 │              │         72.0 │
│ fhv     │ 2021-10-30 22:03:37 │ 2021-10-30 22:16:13 │           13 │          756 │              │         35.0 │
│ fhv     │ 2021-10-30 22:25:08 │ 2021-10-30 22:28:45 │            3 │          217 │              │         77.0 │
│ fhv     │ 2021-10-30 22:46:31 │ 2021-10-30 22:51:26 │            5 │          295 │              │         77.0 │
│ fhv     │ 2021-10-30 22:22:32 │ 2021-10-30 22:36:46 │           14 │          854 │              │         85.0 │
│ fhv     │ 2021-10-30 22:57:18 │ 2021-10-30 23:10:41 │           13 │          803 │              │         39.0 │
│ fhv     │ 2021-10-30 22:01:48 │ 2021-10-30 22:10:14 │            9 │          506 │              │        133.0 │
│ fhv     │ 2021-10-30 22:38:57 │ 2021-10-30 22:48:01 │           10 │          544 │              │         26.0 │
│ fhv     │ 2021-10-30 22:55:09 │ 2021-10-30 22:59:46 │            4 │          277 │              │         26.0 │
│ fhv     │ 2021-10-30 22:59:33 │ 2021-10-30 23:21:27 │           22 │         1314 │              │        108.0 │
│ fhv     │ 2021-10-30 22:19:35 │ 2021-10-30 22:35:26 │           16 │          951 │              │        227.0 │
│ fhv     │ 2021-10-30 22:49:05 │ 2021-10-30 22:56:36 │            7 │          451 │              │        155.0 │
│ fhv     │ 2021-10-30 22:59:27 │ 2021-10-30 23:05:26 │            6 │          359 │              │         91.0 │
│ fhv     │ 2021-10-30 22:12:49 │ 2021-10-30 22:17:50 │            5 │          301 │              │         26.0 │
│ fhv     │ 2020-09-22 16:00:00 │ 2020-09-22 17:00:00 │           60 │         3600 │              │        248.0 │
│ fhv     │ 2020-06-02 12:27:01 │ 2020-06-02 12:33:27 │            6 │          386 │              │         42.0 │
│ fhv     │ 2020-06-03 10:28:33 │ 2020-06-03 10:33:52 │            5 │          319 │              │         42.0 │
│ fhv     │ 2020-06-03 10:37:50 │ 2020-06-03 10:54:21 │           17 │          991 │              │        159.0 │
│ fhv     │ 2020-06-03 10:47:56 │ 2020-06-03 10:59:47 │           12 │          711 │              │        166.0 │
│ fhv     │ 2020-06-03 12:01:51 │ 2020-06-03 12:16:49 │           15 │          898 │              │        235.0 │
├─────────┴─────────────────────┴─────────────────────┴──────────────┴──────────────┴──────────────┴──────────────┤
│ 1588827 rows (40 shown)                                                                               7 columns │
└─────────────────────────────────────────────────────────────────────────────────────────────────────────────────┘
