┌─────────────┬──────────────────────┬──────────┬────────────────────┬────────────────────┬────────────────────┐
│ fare_amount │         Zone         │ Borough  │    zone_average    │  borough_average   │      overall       │
│   double    │       varchar        │ varchar  │       double       │       double       │       double       │
├─────────────┼──────────────────────┼──────────┼────────────────────┼────────────────────┼────────────────────┤
│         6.5 │ NV                   │ Unknown  │ 17.162814299240022 │ 25.087565789468236 │ 12.929639743353878 │
│         6.0 │ NV                   │ Unknown  │ 17.162814299240022 │ 25.087565789468236 │ 12.929639743353878 │
│        11.0 │ NV                   │ Unknown  │ 17.162814299240022 │ 25.087565789468236 │ 12.929639743353878 │
│        16.5 │ NV                   │ Unknown  │ 17.162814299240022 │ 25.087565789468236 │ 12.929639743353878 │
│        27.0 │ NV                   │ Unknown  │ 17.162814299240022 │ 25.087565789468236 │ 12.929639743353878 │
│         9.5 │ NV                   │ Unknown  │ 17.162814299240022 │ 25.087565789468236 │ 12.929639743353878 │
│        20.0 │ NV                   │ Unknown  │ 17.162814299240022 │ 25.087565789468236 │ 12.929639743353878 │
│         6.5 │ NV                   │ Unknown  │ 17.162814299240022 │ 25.087565789468236 │ 12.929639743353878 │
│        14.0 │ NV                   │ Unknown  │ 17.162814299240022 │ 25.087565789468236 │ 12.929639743353878 │
│         6.0 │ NV                   │ Unknown  │ 17.162814299240022 │ 25.087565789468236 │ 12.929639743353878 │
│        10.0 │ NV                   │ Unknown  │ 17.162814299240022 │ 25.087565789468236 │ 12.929639743353878 │
│         5.0 │ NV                   │ Unknown  │ 17.162814299240022 │ 25.087565789468236 │ 12.929639743353878 │
│        22.5 │ NV                   │ Unknown  │ 17.162814299240022 │ 25.087565789468236 │ 12.929639743353878 │
│        31.0 │ NV                   │ Unknown  │ 17.162814299240022 │ 25.087565789468236 │ 12.929639743353878 │
│         5.5 │ NV                   │ Unknown  │ 17.162814299240022 │ 25.087565789468236 │ 12.929639743353878 │
│         7.5 │ NV                   │ Unknown  │ 17.162814299240022 │ 25.087565789468236 │ 12.929639743353878 │
│        10.5 │ NV                   │ Unknown  │ 17.162814299240022 │ 25.087565789468236 │ 12.929639743353878 │
│        13.0 │ NV                   │ Unknown  │ 17.162814299240022 │ 25.087565789468236 │ 12.929639743353878 │
│        46.5 │ NV                   │ Unknown  │ 17.162814299240022 │ 25.087565789468236 │ 12.929639743353878 │
│        26.0 │ NV                   │ Unknown  │ 17.162814299240022 │ 25.087565789468236 │ 12.929639743353878 │
│          ·  │ ·                    │    ·     │          ·         │          ·         │          ·         │
│          ·  │ ·                    │    ·     │          ·         │          ·         │          ·         │
│          ·  │ ·                    │    ·     │          ·         │          ·         │          ·         │
│       20.53 │ Flatbush/Ditmas Park │ Brooklyn │ 27.805364372469604 │  23.63901703206833 │ 12.929639743353878 │
│        28.2 │ Flatbush/Ditmas Park │ Brooklyn │ 27.805364372469604 │  23.63901703206833 │ 12.929639743353878 │
│       21.95 │ Flatbush/Ditmas Park │ Brooklyn │ 27.805364372469604 │  23.63901703206833 │ 12.929639743353878 │
│       32.74 │ Flatbush/Ditmas Park │ Brooklyn │ 27.805364372469604 │  23.63901703206833 │ 12.929639743353878 │
│        29.0 │ Flatbush/Ditmas Park │ Brooklyn │ 27.805364372469604 │  23.63901703206833 │ 12.929639743353878 │
│        7.33 │ Flatbush/Ditmas Park │ Brooklyn │ 27.805364372469604 │  23.63901703206833 │ 12.929639743353878 │
│       12.32 │ Flatbush/Ditmas Park │ Brooklyn │ 27.805364372469604 │  23.63901703206833 │ 12.929639743353878 │
│       14.95 │ Flatbush/Ditmas Park │ Brooklyn │ 27.805364372469604 │  23.63901703206833 │ 12.929639743353878 │
│       35.06 │ Flatbush/Ditmas Park │ Brooklyn │ 27.805364372469604 │  23.63901703206833 │ 12.929639743353878 │
│       32.45 │ Flatbush/Ditmas Park │ Brooklyn │ 27.805364372469604 │  23.63901703206833 │ 12.929639743353878 │
│        14.2 │ Flatbush/Ditmas Park │ Brooklyn │ 27.805364372469604 │  23.63901703206833 │ 12.929639743353878 │
│       46.06 │ Flatbush/Ditmas Park │ Brooklyn │ 27.805364372469604 │  23.63901703206833 │ 12.929639743353878 │
│       25.45 │ Flatbush/Ditmas Park │ Brooklyn │ 27.805364372469604 │  23.63901703206833 │ 12.929639743353878 │
│       20.87 │ Flatbush/Ditmas Park │ Brooklyn │ 27.805364372469604 │  23.63901703206833 │ 12.929639743353878 │
│       26.56 │ Flatbush/Ditmas Park │ Brooklyn │ 27.805364372469604 │  23.63901703206833 │ 12.929639743353878 │
│        13.0 │ Flatbush/Ditmas Park │ Brooklyn │ 27.805364372469604 │  23.63901703206833 │ 12.929639743353878 │
│        20.5 │ Flatbush/Ditmas Park │ Brooklyn │ 27.805364372469604 │  23.63901703206833 │ 12.929639743353878 │
│       35.95 │ Flatbush/Ditmas Park │ Brooklyn │ 27.805364372469604 │  23.63901703206833 │ 12.929639743353878 │
│        18.2 │ Flatbush/Ditmas Park │ Brooklyn │ 27.805364372469604 │  23.63901703206833 │ 12.929639743353878 │
│       31.93 │ Flatbush/Ditmas Park │ Brooklyn │ 27.805364372469604 │  23.63901703206833 │ 12.929639743353878 │
├─────────────┴──────────────────────┴──────────┴────────────────────┴────────────────────┴────────────────────┤
│ 5454972 rows (40 shown)                                                                            6 columns │
└──────────────────────────────────────────────────────────────────────────────────────────────────────────────┘
